{
  "voice":{
    "browse": "eNowPlayingBrowse",
    "list": "eNowPlayingBrowse",
    "next":"eNowPlayingNext",
    "previous:":"eNowPlayingPrevious",
    "am":"eNowPlayingAM",
    "fm":"eNowPlayingFM",
    "usb":"eNowPlayingMedia",
    "media":"eNowPlayingMedia",
    "aux":"eNowPlayingMore",
    "back":"eScreenBack",
    "close":"eScreenClose"
  },
  "touch":{
    "img_audio_browse":"eNowPlayingBrowse",
    "nowPlayingScreen":"eNowPlayingScreen",
    "fmnowPlayingScreen":"eFMNowPlayingScreen",
    "img_audio_timeshift_rightseek":"eNowPlayingNext",
    "img_audio_timeshift_leftseek":"eNowPlayingPrevious",
    "nowplaying_AM":"eNowPlayingAM",
    "nowplaying_FM":"eNowPlayingFM",
    "img_ui_audio_manual_tune_am_band":"eManualTunerAmBand",
    "img_ui_audio_manual_tune_fm_band":"eManualTunerFmBand",
    "nowplaying_Media":"eNowPlayingMedia",
    "nowplaying_More":"eNowPlayingMore",
    "imageButton1":"eScreenBack",
    "imageButton2":"eScreenClose",
    "nextScreen":"eNextScreen",
    "themesScreen":"eThemesScreen",
    "pause":"ePlayPause",
    "img_audio_tune_to":"eAMFMTuneScreen",
    "img_ui_audio_tune":"eAMFMTune",
    "tuneProcess":"eAMFMTuneProcess",
    "img_audio_favorite":"eFavorite"
  },
  "keyboard":{
    "B":"eNowPlayingBrowse",
    "N":"eNowPlayingNext",
    "P":"eNowPlayingPrevious",
    "A":"eNowPlayingAM",
    "F":"eNowPlayingFM",
    "U":"eNowPlayingMedia",
    "X":"eNowPlayingMore"
  },
  "remote":{
    "remoteBrowse":"eNowPlayingBrowse"
  }
}
