{
  "eNowPlayingBrowse":{"eventType":"fragment","eventName":"RadioPresetsFragment"},
  "eNowPlayingScreen":{"eventType":"fragment","eventName":"NowPlayingFragment"},
  "eFMNowPlayingScreen":{"eventType":"fragment","eventName":"NowPlayingFragment"},
  "eScreenBack":{"eventType":"finish","eventName":"evG_Back"},
  "eScreenClose":{"eventType":"finish","eventName":"evG_Close"},
  "eNowPlayingNext":{"eventType":"process","eventName":"onRequestNowPlayingNext"},
  "eNowPlayingPrevious":{"eventType":"process","eventName":"onRequestNowPlayingPrevious"},
  "eNowPlayingAM":{"eventType":"process_fragment","eventName":"onAmRequestSource"},
  "eNowPlayingFM":{"eventType":"process_fragment","eventName":"onFmRequestSource"},
  "eManualTunerAmBand":{"eventType":"process","eventName":"onAmRequestSource"},
  "eManualTunerFmBand":{"eventType":"process","eventName":"onFmRequestSource"},
  "eNowPlayingMedia":{"eventType":"process","eventName":"onMediaRequest"},
  "eNowPlayingMore":{"eventType":"process","eventName":"onAuxRequest"},
  "eNextScreen":{"eventType":"navigate","eventName":"evG_NowPlaying"},
  "eThemesScreen":{"eventType":"navigate","eventName":"evG_Themes"},
  "ePlayPause":{"eventType":"process","eventName":"onNowplayingPlayPause"},
  "eAMFMTune":{"eventType":"process_fragment","eventName":"onAMFMTuneRequest"},
  "eAMFMTuneProcess":{"eventType":"process","eventName":"onAMFMTuneRequest"},
  "eAMFMTuneScreen":{"eventType":"fragment","eventName":"ManualTunerFragment"},
  "eFavorite":{"eventType":"process","eventName":"onFavoriteRequest"}
}
