{
  "events_action_map": {
    "evG_NowPlaying": "evG_NowPlaying",
    "evG_List": "evG_List",
    "evG_Close": "evG_Close",
    "evG_Back": "evG_Back",
    "evG_Themes": "evG_Themes",
    "evG_Manual_Tune": "evG_Manual_Tune",
    "onAmRequestSource": "NowPlayingFragment",
    "onFmRequestSource": "NowPlayingFragment",
    "onAMFMTuneRequest": "NowPlayingFragment",
    "RadioPresetsFragment": "RadioPresetsFragment",
    "ManualTunerFragment": "ManualTunerFragment"

  }
}