[
  {
    "sourceType":"FM",
    "metaData1":"93.5",
    "metaData2":"FM1",
    "metaData3":"Red FM"
  },
  {
    "sourceType":"FM",
    "metaData1":"98.3",
    "metaData2":"FM2",
    "metaData3":"Radio Mirchi"
  },
  {
    "sourceType":"FM",
    "metaData1":"92.7",
    "metaData2":"FM3",
    "metaData3":"Big 92.7 FM"
  },
  {
    "sourceType":"FM",
    "metaData1":"91.1",
    "metaData2":"FM4",
    "metaData3":"Radio City"
  },
  {
    "sourceType":"FM",
    "metaData1":"101.9",
    "metaData2":"FM5",
    "metaData3":"Rainbow FM"
  },
  {
    "sourceType":"FM",
    "metaData1":"102.8",
    "metaData2":"FM6",
    "metaData3":"Vivid Bharathi"
  },
  {
    "sourceType":"FM",
    "metaData1":"103.5",
    "metaData2":"FM7",
    "metaData3":"Prasara Bharathi"
  },
  {
    "sourceType":"FM",
    "metaData1":"105.1",
    "metaData2":"FM8",
    "metaData3":"FM Radio"
  },
  {
    "sourceType":"AM",
    "metaData1":"530",
    "metaData2":"AM1",
    "metaData3":""
  },
  {
    "sourceType":"AM",
    "metaData1":"540",
    "metaData2":"AM2",
    "metaData3":""
  },
  {
    "sourceType":"AM",
    "metaData1":"550",
    "metaData2":"AM3",
    "metaData3":""
  },
  {
    "sourceType":"AM",
    "metaData1":"560",
    "metaData2":"AM4",
    "metaData3":""
  },
  {
    "sourceType":"AM",
    "metaData1":"570",
    "metaData2":"AM5",
    "metaData3":""
  },
  {
    "sourceType":"AM",
    "metaData1":"580",
    "metaData2":"AM6",
    "metaData3":""
  },
  {
    "sourceType":"AM",
    "metaData1":"590",
    "metaData2":"AM7",
    "metaData3":""
  },
  {
    "sourceType":"AM",
    "metaData1":"600",
    "metaData2":"AM8",
    "metaData3":""
  },
  {
    "sourceType":"AM",
    "metaData1":"610",
    "metaData2":"AM9",
    "metaData3":""
  },
  {
    "sourceType":"USBMSD",
    "metaData1":"How Deep Is Your Love?",
    "metaData2":"Vidya",
    "metaData3":"Vidya Vox Album"
  },
  {
    "sourceType":"USBMSD",
    "metaData1":"It ain't me",
    "metaData2":"Selena Gomez",
    "metaData3":"Stargazing"
  },

  {
    "sourceType":"USBMSD",
    "metaData1":"I'm the One",
    "metaData2":"DJ Khaled",
    "metaData3":"Grateful"
  },

  {
    "sourceType":"USBMSD",
    "metaData1":"I don't wanna live forever",
    "metaData2":"Taylor Swift",
    "metaData3":"Fifty Shades Darker"
  },
  {
    "sourceType":"USBMSD",
    "metaData1":"Hold On",
    "metaData2":"Ananya",
    "metaData3":"Ananya's Songs"
  },
  {
    "sourceType":"USBMSD",
    "metaData1":"Sit down ",
    "metaData2":"Kendrick Lamar",
    "metaData3":"Damn"
  },
  {
    "sourceType":"USBMSD",
    "metaData1":"I'm in love with the shape of you ",
    "metaData2":"Ed Sheeran",
    "metaData3":"Divide"
  },
  {
    "sourceType":"USBMSD",
    "metaData1":"Ayy, I've been",
    "metaData2":"Post Malone",
    "metaData3":"21 Savage"
  },
  {
    "sourceType":"AUX",
    "metaData1":"AUX",
    "metaData2":"",
    "metaData3":""
  }

]